…
## Prompt

To get started, copy and paste the lines in the code chunk below into a new R script in Rstudio and run them in the console

```R
library(tidyverse)

github <- read_csv("https://raw.githubusercontent.com/fivethirtyeight/data/master/comma-survey/comma-survey.csv")

github
```

```
# A tibble: 1,129 x 13
   RespondentID `In your opinio… `Prior to readi… `How much, if a…
          <dbl> <chr>            <chr>            <chr>           
 1   3292953864 It's important … Yes              Some            
 2   3292950324 It's important … No               Not much        
 3   3292942669 It's important … Yes              Some            
 4   3292932796 It's important … Yes              Some            
 5   3292932522 It's important … No               Not much        
 6   3292926586 It's important … No               A lot           
 7   3292908135 It's important … Yes              A lot           
 8   3292869879 It's important … Yes              A lot           
 9   3292863455 It's important … Yes              A lot           
10   3292860428 It's important … No               Not at all      
# … with 1,119 more rows, and 9 more variables: `How would you write the
#   following sentence?` <chr>, `When faced with using the word "data", have
#   you ever spent time considering if the word was a singular or plural
#   noun?` <chr>, `How much, if at all, do you care about the debate over the
#   use of the word "data" as a singluar or plural noun?` <chr>, `In your
#   opinion, how important or unimportant is proper use of grammar?` <chr>,
#   Gender <chr>, Age <chr>, `Household Income` <chr>, Education <chr>,
#   `Location (Census Region)` <chr>
```
…
